[
    {
        "tipo": "anno_stagione_tagli",
        "chiave": "2011 A/I",
        "valore": "2011 A/I",
        "ordinamento": 20112,
        "upd_ts": "2017-07-03 13:56:07",
        "upd_user": ""
    },
    {
        "tipo": "anno_stagione_tagli",
        "chiave": "2011 P/E",
        "valore": "2011 P/E",
        "ordinamento": 20111,
        "upd_ts": "2017-07-03 13:56:07",
        "upd_user": ""
    },
    {
        "tipo": "anno_stagione_tagli",
        "chiave": "2012 A/I",
        "valore": "2012 A/I",
        "ordinamento": 20122,
        "upd_ts": "2017-07-03 13:56:07",
        "upd_user": ""
    },
    {
        "tipo": "anno_stagione_tagli",
        "chiave": "2012 P/E",
        "valore": "2012 P/E",
        "ordinamento": 20121,
        "upd_ts": "2017-07-03 13:56:07",
        "upd_user": ""
    },
    {
        "tipo": "anno_stagione_tagli",
        "chiave": "2013 A/I",
        "valore": "2013 A/I",
        "ordinamento": 20132,
        "upd_ts": "2017-07-03 13:56:07",
        "upd_user": ""
    },
    {
        "tipo": "anno_stagione_tagli",
        "chiave": "2013 P/E",
        "valore": "2013 P/E",
        "ordinamento": 20131,
        "upd_ts": "2017-07-03 13:56:07",
        "upd_user": ""
    },
    {
        "tipo": "anno_stagione_tagli",
        "chiave": "2014 A/I",
        "valore": "2014 A/I",
        "ordinamento": 20142,
        "upd_ts": "2017-07-03 13:56:07",
        "upd_user": ""
    },
    {
        "tipo": "anno_stagione_tagli",
        "chiave": "2014 P/E",
        "valore": "2014 P/E",
        "ordinamento": 20141,
        "upd_ts": "2017-07-03 13:56:07",
        "upd_user": ""
    },
    {
        "tipo": "anno_stagione_tagli",
        "chiave": "2015 A/I",
        "valore": "2015 A/I",
        "ordinamento": 20152,
        "upd_ts": "2017-07-03 13:56:07",
        "upd_user": ""
    },
    {
        "tipo": "anno_stagione_tagli",
        "chiave": "2015 P/E",
        "valore": "2015 P/E",
        "ordinamento": 20151,
        "upd_ts": "2017-07-03 13:56:07",
        "upd_user": ""
    },
    {
        "tipo": "anno_stagione_tagli",
        "chiave": "2016 A/I",
        "valore": "2016 A/I",
        "ordinamento": 20162,
        "upd_ts": "2017-07-03 13:56:07",
        "upd_user": ""
    },
    {
        "tipo": "anno_stagione_tagli",
        "chiave": "2016 P/E",
        "valore": "2016 P/E",
        "ordinamento": 20161,
        "upd_ts": "2017-07-03 13:56:07",
        "upd_user": ""
    },
    {
        "tipo": "anno_stagione_tagli",
        "chiave": "2017 A/I",
        "valore": "2017 A/I",
        "ordinamento": 20172,
        "upd_ts": "2017-07-03 13:56:07",
        "upd_user": ""
    },
    {
        "tipo": "anno_stagione_tagli",
        "chiave": "2017 P/E",
        "valore": "2017 P/E",
        "ordinamento": 20171,
        "upd_ts": "2017-07-03 13:56:07",
        "upd_user": ""
    },
    {
        "tipo": "anno_stagione_tagli",
        "chiave": "2018 A/I",
        "valore": "2018 A/I",
        "ordinamento": 20182,
        "upd_ts": "2017-07-03 13:56:07",
        "upd_user": ""
    },
    {
        "tipo": "anno_stagione_tagli",
        "chiave": "2018 P/E",
        "valore": "2018 P/E",
        "ordinamento": 20181,
        "upd_ts": "2017-07-03 13:56:07",
        "upd_user": ""
    },
    {
        "tipo": "anno_stagione_tagli",
        "chiave": "2019 A/I",
        "valore": "2019 A/I",
        "ordinamento": 20192,
        "upd_ts": "2018-08-01 17:36:48",
        "upd_user": ""
    },
    {
        "tipo": "anno_stagione_tagli",
        "chiave": "2019 P/E",
        "valore": "2019 P/E",
        "ordinamento": 20191,
        "upd_ts": "2017-12-12 09:59:25",
        "upd_user": ""
    }
]