[
    {
        "tipo": "segmento_mp",
        "chiave": "campionario",
        "valore": "Campionario",
        "ordinamento": 20,
        "upd_ts": "2017-07-03 13:56:07",
        "upd_user": ""
    },
    {
        "tipo": "segmento_mp",
        "chiave": "capi_prova",
        "valore": "Capi prova",
        "ordinamento": 40,
        "upd_ts": "2017-07-03 13:56:07",
        "upd_user": ""
    },
    {
        "tipo": "segmento_mp",
        "chiave": "inserimento",
        "valore": "Inserimento",
        "ordinamento": 50,
        "upd_ts": "2017-07-03 13:56:07",
        "upd_user": ""
    },
    {
        "tipo": "segmento_mp",
        "chiave": "produzione",
        "valore": "Produzione",
        "ordinamento": 10,
        "upd_ts": "2017-07-03 13:56:07",
        "upd_user": ""
    },
    {
        "tipo": "segmento_mp",
        "chiave": "sfilata",
        "valore": "Sfilata",
        "ordinamento": 30,
        "upd_ts": "2017-07-03 13:56:07",
        "upd_user": ""
    }
]